84.4782002302852	0.4959430396556854	5.134352990310558	0.4998234464960583
12.496166772215906	0.5013767597231552	5.102879148330132	0.495983404123177
9.917288862005638	0.5049938087480782	5.079173731977922	0.4950564973435159
8.180701619517194	0.5051078598429687	5.0783376276058005	0.4979696329367363
7.058010839197758	0.5023950729927007	5.073721986617485	0.4970427261570753
6.086987528487714	0.504325795130138	5.079476245128325	0.492805438021482
5.439940896347491	0.5070141423357665	5.078718752756606	0.4916137007333465
4.999890892174992	0.5025254172565293	5.073275486048121	0.4916137007333465
4.600621883886574	0.5106230449937555	5.0734912461608	0.4916137007333465
4.279880211301093	0.5090344761409898	5.074895232263272	0.4914812854791092
4.031537519754284	0.5100446430436016	5.071949673395087	0.4914812854791092
3.8175580893119756	0.5116250652031307	5.072524363107055	0.4914812854791092
3.6934915702708446	0.5096210245668453	5.072832372066748	0.4914812854791092
3.4460235020540058	0.5183622262773723	5.074032766105485	0.4914812854791092
3.4093507932920524	0.5138816476738366	5.075964784970249	0.4914812854791092
3.233142498200827	0.5218733707918738	5.072986578419261	0.4914812854791092
3.170215042838215	0.5169936131386861	5.075705594389978	0.4914812854791092
3.0933983352062477	0.5124560089877052	5.075046431409182	0.4914812854791092
2.987702937021743	0.5195679093581916	5.07475377869432	0.4914812854791092
2.9147176551122733	0.5280076904888571	5.078631860496354	0.4914812854791092
2.8472824823247254	0.5262317518248175	5.074772793011074	0.4914812854791092
2.722690539203421	0.5275840720121008	5.080268905110603	0.4914812854791092
2.7100801794198306	0.5315351277372263	5.075653264122288	0.4914812854791092
2.6103976991054787	0.5383374610521497	5.075675894744204	0.4914812854791092
2.6357062267561027	0.5310626304062613	5.074632129529967	0.4914812854791092
2.5853090416776	0.5334006778515168	5.0721722345282565	0.4914812854791092
2.5349578454981754	0.5329037408759124	5.075990861349732	0.4914812854791092
2.4365665307880318	0.5401378389257584	5.075493718585829	0.4914812854791092
2.3820771005031838	0.5376613009585082	5.074660064530199	0.4914812854791092
2.3421737012201853	0.5427610141082402	5.071417251642603	0.4914812854791092
2.3213368140868025	0.5415471846604869	5.0755277028049	0.4914812854791092
2.2775530821650567	0.5408139990194001	5.071310781214359	0.4914812854791092
2.2487410080693935	0.5396653415947935	5.076728799917402	0.4914812854791092
2.2065528522442728	0.5432172184878022	5.077487583578068	0.4914812854791092
2.1353930102212586	0.5497995960886461	5.078600953095151	0.4914812854791092
2.0938776553112226	0.5516977321057424	5.081901292731292	0.4914812854791092
2.049738096059674	0.5532292754110628	5.0798872961615125	0.4914812854791092
2.09088654892288	0.5469238790717438	5.081301943229063	0.4914812854791092
2.023883389730523	0.549693691469457	5.084330054095192	0.4914812854791092
1.9751495353496857	0.5539706075278512	5.082101814938287	0.4914812854791092
1.950349835148693	0.5519095413441205	5.087920432543233	0.4914812854791092
1.9573751105009205	0.5511274766312898	5.089498088307624	0.4914812854791092
1.871876023981693	0.5607240615534956	5.087164269746655	0.4914812854791092
1.904115115639067	0.5542883211678832	5.089781294773965	0.4914812854791092
1.8402282874079516	0.5530011732212818	5.091347294132205	0.4914812854791092
1.8127085083592547	0.5582312306348425	5.093208838553324	0.4914812854791092
1.7485809682929603	0.5625733187163833	5.098222756907887	0.4914812854791092
1.7452638262379778	0.5609603102189781	5.098667071683564	0.4914812854791092
1.721697733567579	0.5657015773501709	5.103874157815084	0.4914812854791092
1.6872472493317876	0.5645040408538206	5.103732070783629	0.4914812854791092
1.7005120611538853	0.5610743613138686	5.109719728901439	0.4914812854791092
1.6564147722547071	0.5683899245557994	5.108287884371124	0.4914812854791092
1.6967309548036895	0.5625896116677862	5.113753565906608	0.4914812854791092
1.6284201889142502	0.5658400678721658	5.116759610002059	0.4914812854791092
1.6021595884413615	0.5653105449937555	5.119253732862264	0.4914812854791092
1.5848670664929996	0.5690986705522467	5.120532317753256	0.4914812854791092
1.5610469420895958	0.574638295130138	5.12359575633585	0.4914812854791092
1.6031475365161896	0.5600967805315978	5.122844699525485	0.4914812854791092
1.5188354962933672	0.5748012252967724	5.123002699691884	0.4914812854791092
1.528168787703897	0.5732696819914519	5.1250557969086366	0.4914812854791092
1.5437853297177893	0.5722269291860343	5.12791195054994	0.4914812854791092
1.479251883760856	0.5757950992479811	5.133410307612732	0.4914812854791092
1.4862395192149782	0.5746301486544365	5.1316096312808295	0.4914812854791092
1.4563355804794895	0.5738725235862453	5.134062686975855	0.4914812854791092
1.4093409265479901	0.5794447342844775	5.136365907905746	0.4914812854791092
1.4400786146195266	0.5744346325849965	5.1358899617717215	0.4914812854791092
1.4378083324345359	0.5772533238369183	5.138367677257008	0.4914812854791092
1.414313211058178	0.5763653547224337	5.137968860403465	0.4914812854791092
1.4189470836715976	0.5731637773722628	5.143052463113826	0.4914812854791092
1.3995221383380194	0.5742717024183621	5.144660862692951	0.4914812854791092
1.3629401382738657	0.5804304615424497	5.145514324633744	0.4914812854791092
1.3347348401146213	0.5833061783418169	5.146563192353631	0.4914812854791092
1.3216360646442775	0.5857175445034556	5.149799336482139	0.4914812854791092
1.323580210661366	0.5833061783418169	5.1469606900737235	0.4914812854791092
1.2904439855666057	0.589912995369765	5.151689216168258	0.4914812854791092
1.306858001181679	0.5863448255253534	5.151071920882177	0.4914812854791092
1.3017364359685104	0.5870698644732036	5.155299569568495	0.4914812854791092
1.2649095619681978	0.589334593419611	5.156161012440703	0.4914812854791092
1.2698694791672003	0.5814487749207629	5.157333046850497	0.4914812854791092
1.2505908366972514	0.5919822080291971	5.165243618679742	0.4914812854791092
1.2205196518967623	0.5934159934085651	5.161195796771641	0.4914812854791092
1.24828295246528	0.5886258474231636	5.160269465759723	0.4914812854791092
1.245592880858122	0.5880311523040715	5.159620542595857	0.4914812854791092
1.2113977353068164	0.5927724192177293	5.15994696373487	0.4914812854791092
1.2223439584248257	0.5918844501032446	5.16046157892603	0.4914812854791092
1.1802184864552352	0.5914852712711278	5.161700983117097	0.4914812854791092
1.2187957939875387	0.5887643379451585	5.16409589600389	0.4914812854791092
1.1850891459162218	0.5897826513234716	5.161307738645234	0.4914812854791092
1.1684063501166602	0.5954689130078267	5.165766813459188	0.4914812854791092
1.1590769456250825	0.5980106231069913	5.160421625541074	0.4914812854791092
1.163972790441374	0.5949068041178431	5.161822994260023	0.4914812854791092
1.1346028120848384	0.5992244525547445	5.162906667611895	0.4914812854791092
1.1547024926564988	0.6008456075278512	5.161640835504462	0.4914812854791092
1.131854151069683	0.5997132430546475	5.164323744112558	0.4914812854791092
1.1008587372999121	0.6082263425753934	5.168360591804894	0.4914812854791092
1.1042975818153715	0.602051290499903	5.164092408479565	0.4914812854791092
1.1020821602675166	0.603696884900114	5.166678212854984	0.4914812854791092
1.086116975241334	0.6045359751603899	5.171842362758887	0.4914812854791092
1.1047632957461977	0.6049188608235686	5.171777697375221	0.4914812854791092
1.08826282076592	0.6076805267455804	5.173637268317007	0.4914812854791092
1.0872658934906452	0.6019535323564154	5.1721787626725915	0.4914812854791092
1.0466123314669533	0.6128291189670563	5.171319592608152	0.4914812854791092
1.065315277689565	0.6084381518137716	5.17218707425751	0.4914812854791092
1.0355391939626122	0.6161773333149235	5.166993329124729	0.4914812854791092
1.0349588235364342	0.6117456335655964	5.169210044136883	0.4914812854791092
1.0249838563647584	0.6196151591130417	5.169385903073053	0.4914812854791092
1.0029582133258346	0.6204379564219148	5.166880464901889	0.4914812854791092
1.0208774139411259	0.6114523593526687	5.166709875538402	0.4914812854791092
1.0126664392704512	0.6163565564329607	5.1680246165199	0.4914812854791092
1.0234336152564	0.6164543145764483	5.165312551233891	0.4914812854791092
1.0099297120188275	0.6137985532736256	5.166734166388964	0.4914812854791092
0.9923973150932006	0.6181650809998059	5.163471159273691	0.4914812854791092
0.9954605833457334	0.6204542493733176	5.16606667093987	0.4914812854791092
0.9769089489522642	0.6222872133672672	5.1673141813626255	0.4914812854791092
0.9843865600380585	0.6210326513234716	5.163538856227903	0.4914812854791092
0.9707420603202207	0.6201772681117927	5.162132371081053	0.4914812854791092
0.9654145084158348	0.6246659934085651	5.160762424886662	0.4914812854791092
0.9485573331369971	0.6216029067979242	5.160224709197553	0.4914812854791092
0.9768981713883198	0.6226293666519388	5.159013062497995	0.4914812854791092
0.964735786627679	0.6222464807712249	5.157886212759644	0.4914812854791092
